Biostat 203B Homework 2 Solution
…
print(icustays_tble, width = Inf)

## # A tibble: 69,619 x 8
##    subject_id  hadm_id  stay_id first_careunit                     
##         <dbl>    <dbl>    <dbl> <chr>                              
##  1   17823467 27561644 35964304 Coronary Care Unit (CCU)           
##  2   15772648 26147926 39637383 Trauma SICU (TSICU)                
##  3   13713711 25848902 36363748 Trauma SICU (TSICU)                
##  4   13173210 22338446 38210858 Coronary Care Unit (CCU)           
##  5   10213765 28522861 39765853 Trauma SICU (TSICU)                
##  6   17530304 21776160 35848367 Trauma SICU (TSICU)                
##  7   10297774 20364526 37788595 Coronary Care Unit (CCU)           
##  8   16766597 21185791 39262919 Trauma SICU (TSICU)                
##  9   17684317 28656350 36989766 Trauma SICU (TSICU)                
## 10   15693895 21203492 34766377 Surgical Intensive Care Unit (SICU)
##    last_careunit                       intime              outtime            
##    <chr>                               <dttm>              <dttm>             
##  1 Coronary Care Unit (CCU)            2138-05-09 05:08:00 2138-05-11 16:55:34
##  2 Trauma SICU (TSICU)                 2146-06-18 18:35:00 2146-06-21 17:41:00
##  3 Trauma SICU (TSICU)                 2157-09-15 15:30:00 2157-09-17 18:18:49
##  4 Coronary Care Unit (CCU)            2178-02-12 17:13:50 2178-02-15 14:55:14
##  5 Trauma SICU (TSICU)                 2113-04-10 14:11:00 2113-04-11 10:55:19
##  6 Trauma SICU (TSICU)                 2129-03-21 07:09:00 2129-03-23 20:23:23
##  7 Coronary Care Unit (CCU)            2194-05-10 21:35:40 2194-05-13 14:58:11
##  8 Trauma SICU (TSICU)                 2115-07-11 23:15:59 2115-07-13 16:52:06
##  9 Trauma SICU (TSICU)                 2148-04-14 22:03:00 2148-04-15 22:36:50
## 10 Surgical Intensive Care Unit (SICU) 2147-06-02 23:31:46 2147-06-15 15:56:59
##       los
##     <dbl>
##  1  2.49 
##  2  2.96 
##  3  2.12 
##  4  2.90 
##  5  0.864
##  6  2.55 
##  7  2.72 
##  8  1.73 
##  9  1.02 
## 10 12.7  
## #  with 69,609 more rows
…
## 
##  Column specification 
## cols(
##   subject_id = col_double(),
##   gender = col_character(),
##   anchor_age = col_double(),
##   anchor_year = col_double(),
##   anchor_year_group = col_character(),
##   dod = col_logical()
## )

print(patients_tble, width = Inf)

## # A tibble: 383,220 x 6
##    subject_id gender anchor_age anchor_year anchor_year_group dod  
##         <dbl> <chr>       <dbl>       <dbl> <chr>             <lgl>
##  1   10002723 F               0        2128 2017 - 2019       NA   
##  2   10003939 M               0        2184 2008 - 2010       NA   
##  3   10004222 M               0        2161 2014 - 2016       NA   
##  4   10005325 F               0        2154 2011 - 2013       NA   
##  5   10007338 F               0        2153 2017 - 2019       NA   
##  6   10008101 M               0        2142 2008 - 2010       NA   
##  7   10009872 F               0        2168 2014 - 2016       NA   
##  8   10011333 F               0        2132 2014 - 2016       NA   
##  9   10011879 M               0        2158 2014 - 2016       NA   
## 10   10012663 F               0        2171 2011 - 2013       NA   
## #  with 383,210 more rows
…
